<?xml version="1.0" encoding="UTF-8"?>
<session version="1.0">
<refactoring comment="Delete resource &apos;coop_copy&apos;" deleteContents="false" description="Delete resource &apos;coop_copy&apos;" element1="/coop_copy" flags="7" id="org.eclipse.ltk.core.refactoring.delete.resources" resources="1" stamp="1659365514551"/>
</session>