../Core/Inc/dwt_stm32_delay.h:26:22:DWT_Delay_us	24	static
../Core/Src/main.c:69:10:receive_data	16	static
../Core/Src/main.c:101:5:main	48	static
../Core/Src/main.c:155:6:SystemClock_Config	88	static
../Core/Src/main.c:202:13:MX_CAN1_Init	8	static
../Core/Src/main.c:239:13:MX_RTC_Init	8	static
../Core/Src/main.c:274:13:MX_USART2_UART_Init	8	static
../Core/Src/main.c:307:13:MX_GPIO_Init	40	static
../Core/Src/main.c:332:6:Error_Handler	4	static,ignoring_inline_asm
